# System setup
LAS=10KB
PAS=5KB
PAGESIZE=128B
# Process setup
PROCESS_NAME=P0
PROCESS_SIZE=5300B
PROCESS_MEMREF=898,100,150,260,127,400,110,515,180,420,120,425,256,175,270
ALGORITHM=OPTIMAL
PAGE_FRAMES=4